The Impact of Career Politicians on Political Stability and Government Effectiveness
…
My project is a cross-sectional study of 42 countries at a single point in time, specifically the year 2012. To identify the number of professional politicians in different countries, I used data published in 2012 by the Inter-Parliamentary Union (IPU), which is an international organization of national parliaments. Parliaments used their own approach to categorizing the profession of parliamentarians. Some provided only the last employment before entering parliament; others provided all previous employment up until 2012.

prof_pol <- read_csv("profession_parliament.csv")
prof_pol <- prof_pol |>
  drop_na(CODING) |>
  rename(country = COUNTRY) |>
  mutate(prof = if_else(CODING == 1, 1, 0)) |>
  group_by(country) |>
  mutate(prop = mean(prof, na.rm = TRUE)) |>
  select(country, prop) |>
  distinct(country, prop)
prof_pol

# A tibble: 47 × 2
# Groups:   country [47]
   country                   prop
   <chr>                    <dbl>
 1 Afghanistan            0.474  
 2 Albania                0.0143 
 3 Argentina              0.0212 
 4 Australia              0.303  
 5 Bangladesh             0.0899 
 6 Belarus                0.482  
 7 Benin                  0.181  
 8 Bhutan                 0.191  
 9 Bosnia and Herzegovina 0      
10 Bulgaria               0.00417
# … with 37 more rows
…
eff_stabil <- read_csv("gov_effectiveness_and_pol_stability.csv")

eff_stabil <- eff_stabil |>
  rename(country = `Country Name`) |>
  mutate(estimate_2012 = as.numeric(eff_stabil$`2012 [YR2012]`)) |>
  drop_na(estimate_2012) |>
  select(country,`Series Name`, estimate_2012) |>
  group_by(`Series Name`) |>
  pivot_wider(names_from = `Series Name`,
              values_from = estimate_2012) |>
  rename(effectiveness = `Government Effectiveness: Estimate`, stability = `Political Stability and Absence of Violence/Terrorism: Estimate`)
eff_stabil

# A tibble: 214 × 3
   country             effectiveness stability
   <chr>                       <dbl>     <dbl>
 1 Afghanistan               -1.38      -2.42 
 2 Albania                   -0.268     -0.144
 3 Algeria                   -0.445     -1.33 
 4 American Samoa             0.481      0.953
 5 Andorra                    1.52       1.29 
 6 Angola                    -0.991     -0.389
 7 Anguilla                   1.52       1.48 
 8 Antigua and Barbuda        0.481      0.976
 9 Argentina                 -0.206      0.103
10 Armenia                   -0.0269     0.155
# … with 204 more rows

## joining the two datasets
prof_pol_joined <- prof_pol |>
  inner_join(eff_stabil, by = "country")
prof_pol_joined

# A tibble: 42 × 4
# Groups:   country [42]
   country                   prop effectiveness stability
   <chr>                    <dbl>         <dbl>     <dbl>
 1 Afghanistan            0.474         -1.38     -2.42  
 2 Albania                0.0143        -0.268    -0.144 
 3 Argentina              0.0212        -0.206     0.103 
 4 Australia              0.303          1.61      0.998 
 5 Bangladesh             0.0899        -0.806    -1.38  
 6 Belarus                0.482         -0.967     0.0686
 7 Benin                  0.181         -0.531     0.364 
 8 Bhutan                 0.191          0.554     0.776 
 9 Bosnia and Herzegovina 0             -0.449    -0.538 
10 Bulgaria               0.00417       -0.0315    0.380 
# … with 32 more rows
…
GDP_per_capita <- read_csv("GDP/GDP_per_capita.csv")

GDP_per_capita <- GDP_per_capita |>
  rename(country = `Country Name`) |>
  mutate(country=gsub("Czechia", "Czech Republic", country))|>
  rename(GDP_per_cap = `2012 [YR2012]`) |> 
  select(country,GDP_per_cap)

## adding GDP per capita to previous data set
prof_pol_confounder <- prof_pol_joined |>
  inner_join(GDP_per_capita, by = "country")
prof_pol_confounder

# A tibble: 42 × 5
# Groups:   country [42]
   country                   prop effectiveness stability GDP_per_cap
   <chr>                    <dbl>         <dbl>     <dbl>       <dbl>
 1 Afghanistan            0.474         -1.38     -2.42          639.
 2 Albania                0.0143        -0.268    -0.144        4248.
 3 Argentina              0.0212        -0.206     0.103       13083.
 4 Australia              0.303          1.61      0.998       68028.
 5 Bangladesh             0.0899        -0.806    -1.38          883.
 6 Belarus                0.482         -0.967     0.0686       6953.
 7 Benin                  0.181         -0.531     0.364        1145.
 8 Bhutan                 0.191          0.554     0.776        2539.
 9 Bosnia and Herzegovina 0             -0.449    -0.538        4777.
10 Bulgaria               0.00417       -0.0315    0.380        7432.
# … with 32 more rows

governance_confounders <- read_csv("Governance Confounders.csv")

governance_confounders <- governance_confounders |>
  rename(country = `Country Name`) |>
  rename(data_2012 = `2012 [YR2012]`) |>
  drop_na(data_2012) |>
  select(country,`Series Name`, data_2012) |>
  group_by(`Series Name`) |>
  pivot_wider(names_from = `Series Name`, values_from = data_2012)|>
  rename(rule_of_law = `Rule of Law: Estimate`, democratic_accountability = `Voice and Accountability: Estimate`)
governance_confounders 

# A tibble: 42 × 3
   country                democratic_accountability rule_of_law
   <chr>                                      <dbl>       <dbl>
 1 Afghanistan                              -1.27        -1.65 
 2 Albania                                   0.0221      -0.520
 3 Argentina                                 0.295       -0.623
 4 Australia                                 1.50         1.76 
 5 Bangladesh                               -0.402       -0.936
 6 Belarus                                  -1.57        -0.923
 7 Benin                                     0.124       -0.575
 8 Bhutan                                   -0.281        0.261
 9 Bosnia and Herzegovina                   -0.100       -0.197
10 Bulgaria                                  0.401       -0.115
# … with 32 more rows

## final data set
prof_pol_allconfounders <- prof_pol_confounder |>
  inner_join(governance_confounders, by = "country")
prof_pol_allconfounders

# A tibble: 42 × 7
# Groups:   country [42]
   country                prop effec…¹ stabi…² GDP_p…³ democ…⁴ rule_…⁵
   <chr>                 <dbl>   <dbl>   <dbl>   <dbl>   <dbl>   <dbl>
 1 Afghanistan         0.474   -1.38   -2.42      639. -1.27    -1.65 
 2 Albania             0.0143  -0.268  -0.144    4248.  0.0221  -0.520
 3 Argentina           0.0212  -0.206   0.103   13083.  0.295   -0.623
 4 Australia           0.303    1.61    0.998   68028.  1.50     1.76 
 5 Bangladesh          0.0899  -0.806  -1.38      883. -0.402   -0.936
 6 Belarus             0.482   -0.967   0.0686   6953. -1.57    -0.923
 7 Benin               0.181   -0.531   0.364    1145.  0.124   -0.575
 8 Bhutan              0.191    0.554   0.776    2539. -0.281    0.261
 9 Bosnia and Herzego… 0       -0.449  -0.538    4777. -0.100   -0.197
10 Bulgaria            0.00417 -0.0315  0.380    7432.  0.401   -0.115
# … with 32 more rows, and abbreviated variable names ¹​effectiveness,
#   ²​stability, ³​GDP_per_cap, ⁴​democratic_accountability,
#   ⁵​rule_of_law
…
